%YAML 1.1
%TAG !u! tag:unity3d.com,2011:
--- !u!1001 &5811845055317102572
PrefabInstance:
  m_ObjectHideFlags: 0
  serializedVersion: 2
  m_Modification:
    m_TransformParent: {fileID: 0}
    m_Modifications:
    - target: {fileID: 3602276184245767449, guid: 380f5e98adf5a30469e1ba60cce6a936,
        type: 3}
      propertyPath: m_Enabled
      value: 1
      objectReference: {fileID: 0}
    - target: {fileID: 3602276184245767451, guid: 380f5e98adf5a30469e1ba60cce6a936,
        type: 3}
      propertyPath: m_RootOrder
      value: 0
      objectReference: {fileID: 0}
    - target: {fileID: 3602276184245767451, guid: 380f5e98adf5a30469e1ba60cce6a936,
        type: 3}
      propertyPath: m_LocalScale.x
      value: 1
      objectReference: {fileID: 0}
    - target: {fileID: 3602276184245767451, guid: 380f5e98adf5a30469e1ba60cce6a936,
        type: 3}
      propertyPath: m_LocalScale.y
      value: 0.3
      objectReference: {fileID: 0}
    - target: {fileID: 3602276184245767451, guid: 380f5e98adf5a30469e1ba60cce6a936,
        type: 3}
      propertyPath: m_LocalScale.z
      value: 1
      objectReference: {fileID: 0}
    - target: {fileID: 3602276184245767451, guid: 380f5e98adf5a30469e1ba60cce6a936,
        type: 3}
      propertyPath: m_LocalPosition.x
      value: -3.25
      objectReference: {fileID: 0}
    - target: {fileID: 3602276184245767451, guid: 380f5e98adf5a30469e1ba60cce6a936,
        type: 3}
      propertyPath: m_LocalPosition.y
      value: -1.68
      objectReference: {fileID: 0}
    - target: {fileID: 3602276184245767451, guid: 380f5e98adf5a30469e1ba60cce6a936,
        type: 3}
      propertyPath: m_LocalPosition.z
      value: 0.010000229
      objectReference: {fileID: 0}
    - target: {fileID: 3602276184245767451, guid: 380f5e98adf5a30469e1ba60cce6a936,
        type: 3}
      propertyPath: m_LocalRotation.w
      value: 1
      objectReference: {fileID: 0}
    - target: {fileID: 3602276184245767451, guid: 380f5e98adf5a30469e1ba60cce6a936,
        type: 3}
      propertyPath: m_LocalRotation.x
      value: -0
      objectReference: {fileID: 0}
    - target: {fileID: 3602276184245767451, guid: 380f5e98adf5a30469e1ba60cce6a936,
        type: 3}
      propertyPath: m_LocalRotation.y
      value: -0
      objectReference: {fileID: 0}
    - target: {fileID: 3602276184245767451, guid: 380f5e98adf5a30469e1ba60cce6a936,
        type: 3}
      propertyPath: m_LocalRotation.z
      value: -0
      objectReference: {fileID: 0}
    - target: {fileID: 3602276184245767451, guid: 380f5e98adf5a30469e1ba60cce6a936,
        type: 3}
      propertyPath: m_LocalEulerAnglesHint.x
      value: 0
      objectReference: {fileID: 0}
    - target: {fileID: 3602276184245767451, guid: 380f5e98adf5a30469e1ba60cce6a936,
        type: 3}
      propertyPath: m_LocalEulerAnglesHint.y
      value: 0
      objectReference: {fileID: 0}
    - target: {fileID: 3602276184245767451, guid: 380f5e98adf5a30469e1ba60cce6a936,
        type: 3}
      propertyPath: m_LocalEulerAnglesHint.z
      value: 0
      objectReference: {fileID: 0}
    - target: {fileID: 3602276184245767455, guid: 380f5e98adf5a30469e1ba60cce6a936,
        type: 3}
      propertyPath: m_Name
      value: Enemy (1)
      objectReference: {fileID: 0}
    - target: {fileID: 3602276184245767455, guid: 380f5e98adf5a30469e1ba60cce6a936,
        type: 3}
      propertyPath: m_TagString
      value: DeathZone
      objectReference: {fileID: 0}
    m_RemovedComponents: []
  m_SourcePrefab: {fileID: 100100000, guid: 380f5e98adf5a30469e1ba60cce6a936, type: 3}
--- !u!1 &7014929624137777907 stripped
GameObject:
  m_CorrespondingSourceObject: {fileID: 3602276184245767455, guid: 380f5e98adf5a30469e1ba60cce6a936,
    type: 3}
  m_PrefabInstance: {fileID: 5811845055317102572}
  m_PrefabAsset: {fileID: 0}
--- !u!114 &1590651023
MonoBehaviour:
  m_ObjectHideFlags: 0
  m_CorrespondingSourceObject: {fileID: 0}
  m_PrefabInstance: {fileID: 0}
  m_PrefabAsset: {fileID: 0}
  m_GameObject: {fileID: 7014929624137777907}
  m_Enabled: 1
  m_EditorHideFlags: 0
  m_Script: {fileID: 11500000, guid: 489db1b509cc7c54aa1adde7ab0b695f, type: 3}
  m_Name: 
  m_EditorClassIdentifier: 
  player: {fileID: 0}
  trap: {fileID: 7014929624137777907}
  activationDistance: 3
